Introduction to the benthos-package
…
Sample data set

In the sections below, we will illustrate the
benthos-package by means of the Oosterschelde marine
benthos data set. This data set ships with the
benthos-package and can be loaded by typing:

data(oosterschelde)

The first 10 records of these data set are given below:

oosterschelde
# A tibble: 4,269 × 8
   OBJECTID     SAMPLEID DATE          ID HABITAT               AREA TAXON                COUNT
   <chr>           <int> <date>     <int> <chr>                <dbl> <chr>                <int>
 1 nl89_oostsde    14956 2010-09-06     1 Polyhaline-Subtidal 0.0157 Aphelochaeta marioni     1
 2 nl89_oostsde    14956 2010-09-06     1 Polyhaline-Subtidal 0.0157 Crangon crangon          1
 3 nl89_oostsde    14956 2010-09-06     1 Polyhaline-Subtidal 0.0157 Nephtys hombergii        4
 4 nl89_oostsde    14956 2010-09-06     1 Polyhaline-Subtidal 0.0157 Oligochaeta              5
 5 nl89_oostsde    14956 2010-09-06     1 Polyhaline-Subtidal 0.0157 Pygospio elegans        12
 6 nl89_oostsde    14956 2010-09-06     1 Polyhaline-Subtidal 0.0157 Scoloplos armiger        1
 7 nl89_oostsde    14956 2010-09-06     1 Polyhaline-Subtidal 0.0157 Spio martinensis         1
 8 nl89_oostsde    14956 2010-09-06     1 Polyhaline-Subtidal 0.0157 Spiophanes bombyx        8
 9 nl89_oostsde    14957 2010-09-06     2 Polyhaline-Subtidal 0.0157 Corophium arenarium      1
10 nl89_oostsde    14957 2010-09-06     2 Polyhaline-Subtidal 0.0157 Nephtys cirrosa          1
# ℹ 4,259 more rows
…
Standardization of taxon names

Taxon names need to be standardized to comply with the names in the
WoRMS-database. The as_accepted-function does this
conversion by using the TWN-list (https://taxainfo.nl/). This list is based on the WoRMS
database (World Register of Marine Species, https://www.marinespecies.org/).

We can use the is_accepted-function to check if a taxon
complies with WoRMS:

oosterschelde %>% 
    mutate(COMPLIANT = is_accepted(taxon = TAXON)) %>%
    select(OBJECTID, HABITAT, DATE, TAXON, COUNT, COMPLIANT)
# A tibble: 3,737 × 6
   OBJECTID     HABITAT             DATE       TAXON                COUNT COMPLIANT
   <chr>        <chr>               <date>     <chr>                <int> <lgl>    
 1 nl89_oostsde Polyhaline-Subtidal 2010-09-06 Aphelochaeta marioni     1 TRUE     
 2 nl89_oostsde Polyhaline-Subtidal 2010-09-06 Crangon crangon          1 TRUE     
 3 nl89_oostsde Polyhaline-Subtidal 2010-09-06 Nephtys hombergii        4 TRUE     
 4 nl89_oostsde Polyhaline-Subtidal 2010-09-06 Oligochaeta              5 TRUE     
 5 nl89_oostsde Polyhaline-Subtidal 2010-09-06 Pygospio elegans        12 TRUE     
 6 nl89_oostsde Polyhaline-Subtidal 2010-09-06 Scoloplos armiger        1 TRUE     
 7 nl89_oostsde Polyhaline-Subtidal 2010-09-06 Spio martinensis         1 TRUE     
 8 nl89_oostsde Polyhaline-Subtidal 2010-09-06 Spiophanes bombyx        8 TRUE     
 9 nl89_oostsde Polyhaline-Subtidal 2010-09-06 Corophium arenarium      1 TRUE     
10 nl89_oostsde Polyhaline-Subtidal 2010-09-06 Nephtys cirrosa          1 TRUE     
# ℹ 3,727 more rows
…
The Oosterschelde data set only contains individuals at the genus and
species level (individuals at higher order taxonomic levels have been
removed for didactic purposes only).

It is convenient to split each taxon into its generic and specific
name. This can be accomplished as follows:

oosterschelde <- oosterschelde %>%
    mutate(
        GENERIC  = generic_name(TAXON),
        SPECIFIC = specific_name(TAXON)
    )
oosterschelde
# A tibble: 3,718 × 10
   OBJECTID     SAMPLEID DATE          ID HABITAT               AREA TAXON    COUNT GENERIC SPECIFIC
   <chr>           <int> <date>     <int> <chr>                <dbl> <chr>    <int> <chr>   <chr>   
 1 nl89_oostsde    14956 2010-09-06     1 Polyhaline-Subtidal 0.0157 Apheloc…     1 Aphelo… marioni 
 2 nl89_oostsde    14956 2010-09-06     1 Polyhaline-Subtidal 0.0157 Crangon…     1 Crangon crangon 
 3 nl89_oostsde    14956 2010-09-06     1 Polyhaline-Subtidal 0.0157 Nephtys…     4 Nephtys homberg…
 4 nl89_oostsde    14956 2010-09-06     1 Polyhaline-Subtidal 0.0157 Oligoch…     5 <NA>    <NA>    
 5 nl89_oostsde    14956 2010-09-06     1 Polyhaline-Subtidal 0.0157 Pygospi…    12 Pygosp… elegans 
 6 nl89_oostsde    14956 2010-09-06     1 Polyhaline-Subtidal 0.0157 Scolopl…     1 Scolop… armiger 
 7 nl89_oostsde    14956 2010-09-06     1 Polyhaline-Subtidal 0.0157 Spio ma…     1 Spio    martine…
 8 nl89_oostsde    14956 2010-09-06     1 Polyhaline-Subtidal 0.0157 Spiopha…     8 Spioph… bombyx  
 9 nl89_oostsde    14957 2010-09-06     2 Polyhaline-Subtidal 0.0157 Corophi…     1 Coroph… arenari…
10 nl89_oostsde    14957 2010-09-06     2 Polyhaline-Subtidal 0.0157 Nephtys…     1 Nephtys cirrosa 
# ℹ 3,708 more rows
…
To finalize our analysis, we will set COUNT to the value of NEWCOUNT,
and remove redundant columns and records.

oosterschelde <- oosterschelde %>%
    mutate(COUNT = NEWCOUNT) %>%
    select(ID, HABITAT, AREA, DATE, TAXON, COUNT) %>%
    filter(COUNT > 0)
oosterschelde
# A tibble: 3,562 × 6
      ID HABITAT               AREA DATE       TAXON                COUNT
   <int> <chr>                <dbl> <date>     <chr>                <dbl>
 1     1 Polyhaline-Subtidal 0.0157 2010-09-06 Aphelochaeta marioni     1
 2     1 Polyhaline-Subtidal 0.0157 2010-09-06 Crangon crangon          1
 3     1 Polyhaline-Subtidal 0.0157 2010-09-06 Nephtys hombergii        4
 4     1 Polyhaline-Subtidal 0.0157 2010-09-06 Oligochaeta              5
 5     1 Polyhaline-Subtidal 0.0157 2010-09-06 Pygospio elegans        12
 6     1 Polyhaline-Subtidal 0.0157 2010-09-06 Scoloplos armiger        1
 7     1 Polyhaline-Subtidal 0.0157 2010-09-06 Spio martinensis         1
 8     1 Polyhaline-Subtidal 0.0157 2010-09-06 Spiophanes bombyx        8
 9     2 Polyhaline-Subtidal 0.0157 2010-09-06 Corophium arenarium      1
10     2 Polyhaline-Subtidal 0.0157 2010-09-06 Nephtys cirrosa          1
# ℹ 3,552 more rows
…
This procedure will return al list of pool identifiers (POOLID) for
each pool run:

names(pool_runs) <- paste0("POOLRUN", 1:n_pool_runs)
pool_runs <- pool_runs %>% as_tibble
pool_runs
# A tibble: 3,562 × 10
   POOLRUN1 POOLRUN2 POOLRUN3 POOLRUN4 POOLRUN5 POOLRUN6 POOLRUN7 POOLRUN8 POOLRUN9 POOLRUN10
      <int>    <int>    <int>    <int>    <int>    <int>    <int>    <int>    <int>     <int>
 1        7       NA        3        1        2       NA       10       NA       NA        NA
 2        7       NA        3        1        2       NA       10       NA       NA        NA
 3        7       NA        3        1        2       NA       10       NA       NA        NA
 4        7       NA        3        1        2       NA       10       NA       NA        NA
 5        7       NA        3        1        2       NA       10       NA       NA        NA
 6        7       NA        3        1        2       NA       10       NA       NA        NA
 7        7       NA        3        1        2       NA       10       NA       NA        NA
 8        7       NA        3        1        2       NA       10       NA       NA        NA
 9        9        2        6        3        2        4        8        3        8        10
10        9        2        6        3        2        4        8        3        8        10
# ℹ 3,552 more rows

Each row in this table corresponds to the row with the same index in
oosterschelde. Therefore, it is quite easy to combine this
table with the ‘oosterschelde’ data:

oosterschelde_orig <- oosterschelde
oosterschelde <- oosterschelde %>%
    bind_cols(pool_runs) %>% 
    as_tibble 
oosterschelde
# A tibble: 3,562 × 17
      ID HABITAT      AREA DATE       TAXON COUNT YEAR  POOLRUN1 POOLRUN2 POOLRUN3 POOLRUN4 POOLRUN5
   <int> <chr>       <dbl> <date>     <chr> <dbl> <chr>    <int>    <int>    <int>    <int>    <int>
 1     1 Polyhalin… 0.0157 2010-09-06 Aphe…     1 2010         7       NA        3        1        2
 2     1 Polyhalin… 0.0157 2010-09-06 Cran…     1 2010         7       NA        3        1        2
 3     1 Polyhalin… 0.0157 2010-09-06 Neph…     4 2010         7       NA        3        1        2
 4     1 Polyhalin… 0.0157 2010-09-06 Olig…     5 2010         7       NA        3        1        2
 5     1 Polyhalin… 0.0157 2010-09-06 Pygo…    12 2010         7       NA        3        1        2
 6     1 Polyhalin… 0.0157 2010-09-06 Scol…     1 2010         7       NA        3        1        2
 7     1 Polyhalin… 0.0157 2010-09-06 Spio…     1 2010         7       NA        3        1        2
 8     1 Polyhalin… 0.0157 2010-09-06 Spio…     8 2010         7       NA        3        1        2
 9     2 Polyhalin… 0.0157 2010-09-06 Coro…     1 2010         9        2        6        3        2
10     2 Polyhalin… 0.0157 2010-09-06 Neph…     1 2010         9        2        6        3        2
# ℹ 3,552 more rows
# ℹ 5 more variables: POOLRUN6 <int>, POOLRUN7 <int>, POOLRUN8 <int>, POOLRUN9 <int>,
#   POOLRUN10 <int>
…
For further analysis, it is convenient to convert this table from
‘wide’ to ‘long’-format. This can be done efficiently by functions of
the tidyr-package (Wickham, 2017), which provides an
interesting framework to tidy your data (Wickham, 2014).

oosterschelde <- oosterschelde %>% 
    gather(key = "POOLRUN", value = "POOLID", starts_with("POOLRUN")) %>%
    mutate(POOLRUN = parse_number(POOLRUN) %>% as.integer) %>%
    filter(!is.na(POOLID)) %>%
    select(POOLRUN, POOLID, HABITAT, AREA, YEAR, ID, TAXON, COUNT)
oosterschelde
# A tibble: 33,439 × 8
   POOLRUN POOLID HABITAT               AREA YEAR     ID TAXON                COUNT
     <int>  <int> <chr>                <dbl> <chr> <int> <chr>                <dbl>
 1       1      7 Polyhaline-Subtidal 0.0157 2010      1 Aphelochaeta marioni     1
 2       1      7 Polyhaline-Subtidal 0.0157 2010      1 Crangon crangon          1
 3       1      7 Polyhaline-Subtidal 0.0157 2010      1 Nephtys hombergii        4
 4       1      7 Polyhaline-Subtidal 0.0157 2010      1 Oligochaeta              5
 5       1      7 Polyhaline-Subtidal 0.0157 2010      1 Pygospio elegans        12
 6       1      7 Polyhaline-Subtidal 0.0157 2010      1 Scoloplos armiger        1
 7       1      7 Polyhaline-Subtidal 0.0157 2010      1 Spio martinensis         1
 8       1      7 Polyhaline-Subtidal 0.0157 2010      1 Spiophanes bombyx        8
 9       1      9 Polyhaline-Subtidal 0.0157 2010      2 Corophium arenarium      1
10       1      9 Polyhaline-Subtidal 0.0157 2010      2 Nephtys cirrosa          1
# ℹ 33,429 more rows

To check if the pooling algorithm succeeded in its task, we compute
the area of each pool. These areas should vary between 0.09 and 0.11
m2, i.e., our target area.

d <- oosterschelde %>%
    group_by(HABITAT, YEAR, POOLRUN, POOLID) %>%
    select(ID, AREA) %>%
    distinct(ID, AREA) %>%
    summarise(AREA = sum(AREA))
Adding missing grouping variables: `HABITAT`, `YEAR`, `POOLRUN`, `POOLID`
`summarise()` has grouped output by 'HABITAT', 'YEAR', 'POOLRUN'. You can override using the
`.groups` argument.
d
# A tibble: 569 × 5
# Groups:   HABITAT, YEAR, POOLRUN [60]
   HABITAT               YEAR  POOLRUN POOLID   AREA
   <chr>                 <chr>   <int>  <int>  <dbl>
 1 Polyhaline-Intertidal 2010        1      1 0.0942
 2 Polyhaline-Intertidal 2010        1      2 0.0942
 3 Polyhaline-Intertidal 2010        1      3 0.0942
 4 Polyhaline-Intertidal 2010        1      4 0.0942
 5 Polyhaline-Intertidal 2010        1      5 0.0942
 6 Polyhaline-Intertidal 2010        1      6 0.0942
 7 Polyhaline-Intertidal 2010        1      7 0.0942
 8 Polyhaline-Intertidal 2010        2      1 0.0942
 9 Polyhaline-Intertidal 2010        2      2 0.0942
10 Polyhaline-Intertidal 2010        2      3 0.0942
# ℹ 559 more rows
…
The pooled samples can be used to estimate biodiversity measures (see
the next section for details). For instance, the species richness for
each pool is given by:

d <- oosterschelde %>%
    group_by(HABITAT, YEAR, POOLRUN, POOLID) %>%
    summarise(S = species_richness(taxon = TAXON, count = COUNT))
`summarise()` has grouped output by 'HABITAT', 'YEAR', 'POOLRUN'. You can override using the
`.groups` argument.
d
# A tibble: 569 × 5
# Groups:   HABITAT, YEAR, POOLRUN [60]
   HABITAT               YEAR  POOLRUN POOLID     S
   <chr>                 <chr>   <int>  <int> <int>
 1 Polyhaline-Intertidal 2010        1      1    24
 2 Polyhaline-Intertidal 2010        1      2    41
 3 Polyhaline-Intertidal 2010        1      3    21
 4 Polyhaline-Intertidal 2010        1      4    27
 5 Polyhaline-Intertidal 2010        1      5    31
 6 Polyhaline-Intertidal 2010        1      6    28
 7 Polyhaline-Intertidal 2010        1      7    28
 8 Polyhaline-Intertidal 2010        2      1    25
 9 Polyhaline-Intertidal 2010        2      2    25
10 Polyhaline-Intertidal 2010        2      3    29
# ℹ 559 more rows
…
Biodiversity measures

Several biodiversity measures have been implemented in the
benthos-package. In the sections below, we will demonstrate
how to calculate these measures. To simplify things, all analysis will
be performed on a single sampling unit:

d <- oosterschelde %>% 
    filter(HABITAT == "Polyhaline-Subtidal", YEAR == 2010, POOLRUN == 1, POOLID == 1) %>%
    select(TAXON, COUNT) %>%
    arrange(TAXON)
d
# A tibble: 41 × 2
   TAXON                  COUNT
   <chr>                  <dbl>
 1 Angulus tenuis             1
 2 Aphelochaeta marioni       1
 3 Aphelochaeta marioni      25
 4 Bathyporeia                2
 5 Capitella capitata         2
 6 Cossura longocirrata       1
 7 Echinocardium cordatum     1
 8 Ensis                      1
 9 Lanice conchilega          4
10 Magelona johnstoni         2
# ℹ 31 more rows
…
The accuracy of the AMBI depends (among other things) on the number
of taxa for which a sensitivity group is available. The
has_ambi function indicates if a group has been assigned to
a taxa or not: Taxa with an AMBI sensitivity group are

d %>%
    mutate(HAS_GROUP = has_ambi(taxon = TAXON))
# A tibble: 41 × 3
   TAXON                  COUNT HAS_GROUP
   <chr>                  <dbl> <lgl>    
 1 Angulus tenuis             1 TRUE     
 2 Aphelochaeta marioni       1 TRUE     
 3 Aphelochaeta marioni      25 TRUE     
 4 Bathyporeia                2 TRUE     
 5 Capitella capitata         2 TRUE     
 6 Cossura longocirrata       1 TRUE     
 7 Echinocardium cordatum     1 TRUE     
 8 Ensis                      1 TRUE     
 9 Lanice conchilega          4 TRUE     
10 Magelona johnstoni         2 TRUE     
# ℹ 31 more rows
…
We can estimate the ITI by means of:

d %>% 
    iti(taxon = TAXON, count = COUNT)
[1] 22.82051

The accuracy of the ITI depends (among other things) on the number of
taxa for which a sensitivity group is available. The
has_iti function indicates if a group has been assigned to
a taxa or not: Taxa with an ITI sensitivity group are

d %>%
    mutate(HAS_GROUP = has_iti(taxon = TAXON))
# A tibble: 41 × 3
   TAXON                  COUNT HAS_GROUP
   <chr>                  <dbl> <lgl>    
 1 Angulus tenuis             1 TRUE     
 2 Aphelochaeta marioni       1 TRUE     
 3 Aphelochaeta marioni      25 TRUE     
 4 Bathyporeia                2 TRUE     
 5 Capitella capitata         2 TRUE     
 6 Cossura longocirrata       1 TRUE     
 7 Echinocardium cordatum     1 TRUE     
 8 Ensis                      1 TRUE     
 9 Lanice conchilega          4 TRUE     
10 Magelona johnstoni         2 TRUE     
# ℹ 31 more rows
…
oosterschelde %>% 
    group_by(HABITAT, YEAR, POOLRUN, POOLID) %>% 
    summarise(
        N = total_abundance(count = COUNT),
        S = species_richness(taxon = TAXON, count = COUNT),
        D = margalef(taxon = TAXON, count = COUNT),
        SN = rygg(taxon = TAXON, count = COUNT),
        SNa = rygg(taxon = TAXON, count = COUNT, adjusted = TRUE),
        H = shannon(taxon = TAXON, count = COUNT)
    )
`summarise()` has grouped output by 'HABITAT', 'YEAR', 'POOLRUN'. You can override using the
`.groups` argument.
# A tibble: 569 × 10
# Groups:   HABITAT, YEAR, POOLRUN [60]
   HABITAT               YEAR  POOLRUN POOLID     N     S     D    SN   SNa     H
   <chr>                 <chr>   <int>  <int> <dbl> <int> <dbl> <dbl> <dbl> <dbl>
 1 Polyhaline-Intertidal 2010        1      1   519    24  3.68  1.73  1.60  2.41
 2 Polyhaline-Intertidal 2010        1      2   616    41  6.23  2.00  1.85  3.64
 3 Polyhaline-Intertidal 2010        1      3   370    21  3.38  1.71  1.57  2.67
 4 Polyhaline-Intertidal 2010        1      4   283    27  4.61  1.90  1.74  3.58
 5 Polyhaline-Intertidal 2010        1      5   515    31  4.80  1.87  1.73  2.79
 6 Polyhaline-Intertidal 2010        1      6   368    28  4.57  1.88  1.72  3.45
 7 Polyhaline-Intertidal 2010        1      7   595    28  4.23  1.80  1.67  3.16
 8 Polyhaline-Intertidal 2010        2      1   500    25  3.86  1.76  1.63  2.66
 9 Polyhaline-Intertidal 2010        2      2   413    25  3.98  1.79  1.65  3.33
10 Polyhaline-Intertidal 2010        2      3   394    29  4.69  1.88  1.73  3.83
# ℹ 559 more rows
or more concise:

oosterschelde %>% 
    group_by(HABITAT, YEAR, POOLRUN, POOLID) %>% 
    summarise(
        N = total_abundance(., COUNT),
        S = species_richness(., TAXON, COUNT),
        D = margalef(., TAXON, COUNT),
        SN = rygg(., TAXON, COUNT),
        SNa = rygg(., TAXON, COUNT, adjusted = TRUE),
        H = shannon(., TAXON, COUNT)
    )
`summarise()` has grouped output by 'HABITAT', 'YEAR', 'POOLRUN'. You can override using the
`.groups` argument.
# A tibble: 569 × 10
# Groups:   HABITAT, YEAR, POOLRUN [60]
   HABITAT               YEAR  POOLRUN POOLID     N     S     D    SN   SNa     H
   <chr>                 <chr>   <int>  <int> <dbl> <int> <dbl> <dbl> <dbl> <dbl>
 1 Polyhaline-Intertidal 2010        1      1   519    24  3.68  1.73  1.60  2.41
 2 Polyhaline-Intertidal 2010        1      2   616    41  6.23  2.00  1.85  3.64
 3 Polyhaline-Intertidal 2010        1      3   370    21  3.38  1.71  1.57  2.67
 4 Polyhaline-Intertidal 2010        1      4   283    27  4.61  1.90  1.74  3.58
 5 Polyhaline-Intertidal 2010        1      5   515    31  4.80  1.87  1.73  2.79
 6 Polyhaline-Intertidal 2010        1      6   368    28  4.57  1.88  1.72  3.45
 7 Polyhaline-Intertidal 2010        1      7   595    28  4.23  1.80  1.67  3.16
 8 Polyhaline-Intertidal 2010        2      1   500    25  3.86  1.76  1.63  2.66
 9 Polyhaline-Intertidal 2010        2      2   413    25  3.98  1.79  1.65  3.33
10 Polyhaline-Intertidal 2010        2      3   394    29  4.69  1.88  1.73  3.83
# ℹ 559 more rows
…
